{
	"extensionName": {
		"message": "Analyze address/URL",
		"description": "Name of the extension"
	},
	"extensionDescription": {
		"message": "Show how the web address (URL) is built up",
		"description": "Description of the extension"
	},

	// strings in the popup
	"popupTitle": {
		"message": "Address analysis",
		"description": "Main title above the popup when the button is clicked"
	},
	"queryParamTitle": {
		"message": "Query parameters",
		"description": "Title above the list of URL-key-values like ?q=olympics"
	},
	"copyall": {
		"message": "Copy all",
		"description": "Button inside the popup offering to copy the full results"
	},
	"fromClipboard": {
		"message": "Address from clipboard",
		"description": "Button inside the popup offering analysis of a copied URL"
	},
	"clickToCopy": {
		"message": "Click to copy this item",
		"description": "Tooltip explaining the text can be copied with a click"
	},
	"requiresPermission": {
		"message": "To enable, open 'Add-ons and Themes' and grant permission",
		"description": "Tooltip explaining the need for copy permissions"
	},
	"notValid": {
		"message": "\"$1\" is not a valid address",
		"description": "Error message when the copied URL can't be parsed"
	},

	// technical names for the parts of a URL. Used in the popup.
	// Mostly taken straight from the standard, RFC 3986.
	// Should be translated to terms used in technical discussions (if at all)
	"scheme": {
		"message": "scheme",
		"description": "Start of the URL, up to ':', like 'https' "
	},
	"username": {
		"message": "username",
		"description": "Sometimes after the // like sftp://user@server.com"
	},
	"password": {
		"message": "password",
		"description": "Sometimes after the username: sftp://user:x1Dz9@server.com"
	},
	"host": {
		"message": "host",
		"description": "The machine, between // and / like http://server.com/"
	},
	"port": {
		"message": "port",
		"description": "Number between : and / like http://server.com:8080/"
	},
	"path": {
		"message": "path",
		"description": "Where on the server the page is, like /path/home.html"
	},
	"query": {
		"message": "query",
		"description": "Further URL parameters after ? like ?q=olympics&lan=en"
	},
	"fragment": {
		"message": "fragment",
		"description": "Location within the page, after # like #Section3"
	}	
}
